{
	"info": {
		"_postman_id": "40541f5a-b7c3-412d-97d2-3b959e8d4a94",
		"name": "Go template",
		"schema": "https://schema.getpostman.com/json/collection/v2.1.0/collection.json"
	},
	"item": [
		{
			"name": "internal",
			"item": [
				{
					"name": "migrate",
					"request": {
						"method": "POST",
						"header": [],
						"url": {
							"raw": "{{domain}}/internal/migrate",
							"host": [
								"{{domain}}"
							],
							"path": [
								"internal",
								"migrate"
							]
						}
					},
					"response": []
				}
			]
		},
		{
			"name": "todo item",
			"item": [
				{
					"name": "Create",
					"request": {
						"method": "POST",
						"header": [
							{
								"key": "x-user-id",
								"value": "1e752925-0458-4c58-9689-c2c8b31b9470",
								"type": "text"
							}
						],
						"body": {
							"mode": "raw",
							"raw": "{\r\n    \"name\":\"item name\",\r\n    \"key\":\"item key\",\r\n    \"group\":\"item group\",\r\n    \"description\":\"item description\",\r\n    \"is_active\":true\r\n}",
							"options": {
								"raw": {
									"language": "json"
								}
							}
						},
						"url": {
							"raw": "{{domain}}/rule-default/create",
							"host": [
								"{{domain}}"
							],
							"path": [
								"rule-default",
								"create"
							]
						}
					},
					"response": []
				},
				{
					"name": "Update",
					"request": {
						"method": "PUT",
						"header": [
							{
								"key": "x-user-id",
								"value": "1e752925-0458-4c58-9689-c2c8b31b9470",
								"type": "text"
							}
						],
						"body": {
							"mode": "raw",
							"raw": "{\r\n    \"name\":\"item name\",\r\n    \"key\":\"item key\",\r\n    \"group\":\"item group\",\r\n    \"description\":\"item description\",\r\n    \"is_active\":true\r\n}",
							"options": {
								"raw": {
									"language": "json"
								}
							}
						},
						"url": {
							"raw": "{{domain}}/rule-default/update/bbd0bf01-1ee7-40bf-9a24-1812e15d724b",
							"host": [
								"{{domain}}"
							],
							"path": [
								"rule-default",
								"update",
								"bbd0bf01-1ee7-40bf-9a24-1812e15d724b"
							]
						}
					},
					"response": []
				},
				{
					"name": "Get one",
					"protocolProfileBehavior": {
						"disableBodyPruning": true
					},
					"request": {
						"method": "GET",
						"header": [
							{
								"key": "x-user-id",
								"value": "1e752925-0458-4c58-9689-c2c8b31b9470",
								"type": "text"
							}
						],
						"body": {
							"mode": "raw",
							"raw": "",
							"options": {
								"raw": {
									"language": "json"
								}
							}
						},
						"url": {
							"raw": "{{domain}}/rule-default/get-one/bbd0bf01-1ee7-40bf-9a24-1812e15d724b",
							"host": [
								"{{domain}}"
							],
							"path": [
								"rule-default",
								"get-one",
								"bbd0bf01-1ee7-40bf-9a24-1812e15d724b"
							]
						}
					},
					"response": []
				},
				{
					"name": "Get All",
					"protocolProfileBehavior": {
						"disableBodyPruning": true
					},
					"request": {
						"method": "GET",
						"header": [
							{
								"key": "x-user-id",
								"value": "1e752925-0458-4c58-9689-c2c8b31b9470",
								"type": "text"
							}
						],
						"body": {
							"mode": "raw",
							"raw": "",
							"options": {
								"raw": {
									"language": "json"
								}
							}
						},
						"url": {
							"raw": "{{domain}}/rule-default/get-list?page=1&page_size=10&sort=-created_at",
							"host": [
								"{{domain}}"
							],
							"path": [
								"rule-default",
								"get-list"
							],
							"query": [
								{
									"key": "page",
									"value": "1"
								},
								{
									"key": "page_size",
									"value": "10"
								},
								{
									"key": "sort",
									"value": "-created_at",
									"description": "\"-created_at\" sort desc / \"created_at\" sort asc "
								},
								{
									"key": "key",
									"value": "",
									"disabled": true
								},
								{
									"key": "name",
									"value": "-",
									"disabled": true
								},
								{
									"key": "is_active",
									"value": "",
									"disabled": true
								},
								{
									"key": "group",
									"value": null,
									"disabled": true
								}
							]
						}
					},
					"response": []
				},
				{
					"name": "Delete",
					"request": {
						"method": "DELETE",
						"header": [
							{
								"key": "x-user-id",
								"value": "1e752925-0458-4c58-9689-c2c8b31b9470",
								"type": "text"
							}
						],
						"body": {
							"mode": "raw",
							"raw": "",
							"options": {
								"raw": {
									"language": "json"
								}
							}
						},
						"url": {
							"raw": "{{domain}}/rule-default/delete/bbd0bf01-1ee7-40bf-9a24-1812e15d724b",
							"host": [
								"{{domain}}"
							],
							"path": [
								"rule-default",
								"delete",
								"bbd0bf01-1ee7-40bf-9a24-1812e15d724b"
							]
						}
					},
					"response": []
				}
			]
		},
		{
			"name": "todo item detail",
			"item": [
				{
					"name": "Create",
					"request": {
						"method": "POST",
						"header": [
							{
								"key": "x-user-id",
								"value": "1e752925-0458-4c58-9689-c2c8b31b9470",
								"type": "text"
							}
						],
						"body": {
							"mode": "raw",
							"raw": "{\r\n    \"todo_item_id\":\"443df49a-f976-4bd0-baac-fea7f9bea370\",\r\n    \"name\":\"item name\"\r\n}",
							"options": {
								"raw": {
									"language": "json"
								}
							}
						},
						"url": {
							"raw": "{{domain}}/rule-default-detail/create",
							"host": [
								"{{domain}}"
							],
							"path": [
								"rule-default-detail",
								"create"
							]
						}
					},
					"response": []
				},
				{
					"name": "Update",
					"request": {
						"method": "PUT",
						"header": [
							{
								"key": "x-user-id",
								"value": "2e752925-0458-4c58-9689-c2c8b31b9470",
								"type": "text"
							}
						],
						"body": {
							"mode": "raw",
							"raw": "{\r\n    \"todo_item_id\":\"443df49a-f976-4bd0-baac-fea7f9bea370\",\r\n    \"name\":\"item name up\"\r\n}",
							"options": {
								"raw": {
									"language": "json"
								}
							}
						},
						"url": {
							"raw": "{{domain}}/rule-default-detail/update/2c342184-512c-4a17-85d2-7fb9c19c2b40",
							"host": [
								"{{domain}}"
							],
							"path": [
								"rule-default-detail",
								"update",
								"2c342184-512c-4a17-85d2-7fb9c19c2b40"
							]
						}
					},
					"response": []
				},
				{
					"name": "Get one",
					"protocolProfileBehavior": {
						"disableBodyPruning": true
					},
					"request": {
						"method": "GET",
						"header": [
							{
								"key": "x-user-id",
								"value": "1e752925-0458-4c58-9689-c2c8b31b9470",
								"type": "text"
							}
						],
						"body": {
							"mode": "raw",
							"raw": "",
							"options": {
								"raw": {
									"language": "json"
								}
							}
						},
						"url": {
							"raw": "{{domain}}/rule-default-detail/get-one/bbd0bf01-1ee7-40bf-9a24-1812e15d724b",
							"host": [
								"{{domain}}"
							],
							"path": [
								"rule-default-detail",
								"get-one",
								"bbd0bf01-1ee7-40bf-9a24-1812e15d724b"
							]
						}
					},
					"response": []
				},
				{
					"name": "Get All",
					"protocolProfileBehavior": {
						"disableBodyPruning": true
					},
					"request": {
						"method": "GET",
						"header": [
							{
								"key": "x-user-id",
								"value": "1e752925-0458-4c58-9689-c2c8b31b9470",
								"type": "text"
							}
						],
						"body": {
							"mode": "raw",
							"raw": "",
							"options": {
								"raw": {
									"language": "json"
								}
							}
						},
						"url": {
							"raw": "{{domain}}/rule-default-detail/get-list?page=1&page_size=10&sort=-created_at",
							"host": [
								"{{domain}}"
							],
							"path": [
								"rule-default-detail",
								"get-list"
							],
							"query": [
								{
									"key": "page",
									"value": "1"
								},
								{
									"key": "page_size",
									"value": "10"
								},
								{
									"key": "sort",
									"value": "-created_at",
									"description": "\"-created_at\" sort desc / \"created_at\" sort asc "
								},
								{
									"key": "key",
									"value": "",
									"disabled": true
								},
								{
									"key": "name",
									"value": "-",
									"disabled": true
								},
								{
									"key": "is_active",
									"value": "",
									"disabled": true
								},
								{
									"key": "group",
									"value": null,
									"disabled": true
								}
							]
						}
					},
					"response": []
				},
				{
					"name": "Delete",
					"request": {
						"method": "DELETE",
						"header": [
							{
								"key": "x-user-id",
								"value": "1e752925-0458-4c58-9689-c2c8b31b9470",
								"type": "text"
							}
						],
						"body": {
							"mode": "raw",
							"raw": "",
							"options": {
								"raw": {
									"language": "json"
								}
							}
						},
						"url": {
							"raw": "{{domain}}/rule-default-detail/delete/bbd0bf01-1ee7-40bf-9a24-1812e15d724b",
							"host": [
								"{{domain}}"
							],
							"path": [
								"rule-default-detail",
								"delete",
								"bbd0bf01-1ee7-40bf-9a24-1812e15d724b"
							]
						}
					},
					"response": []
				}
			]
		},
		{
			"name": "entity_term_info",
			"item": [
				{
					"name": "Create",
					"request": {
						"method": "POST",
						"header": [
							{
								"key": "x-user-id",
								"value": "1e752925-0458-4c58-9689-c2c8b31b9470",
								"type": "text"
							}
						],
						"body": {
							"mode": "raw",
							"raw": "{\r\n    \"representative_info_id\":\"0909e88a-742a-4dab-96e3-3bfc5c9a21bc\",\r\n    \"model\":\"my_model\",\r\n    \"org_unit\":\"my_org_unit\",\r\n    \"org_name\":\"my_org_name\",\r\n    \"org_phone\":\"my_org_phone\",\r\n    \"org_hotline\":\"my_org_hotline\",\r\n    \"org_address\":\"my_org_address\",\r\n    \"org_email\":\"my_org_email\",\r\n    \"org_code\":\"my_org_code\",\r\n    \"zip_code\":\"my_zip_code\"\r\n}",
							"options": {
								"raw": {
									"language": "json"
								}
							}
						},
						"url": {
							"raw": "{{base_entity_term}}/entity-term-info/create",
							"host": [
								"{{base_entity_term}}"
							],
							"path": [
								"entity-term-info",
								"create"
							]
						}
					},
					"response": []
				},
				{
					"name": "Update",
					"request": {
						"method": "PUT",
						"header": [
							{
								"key": "x-user-id",
								"value": "1e752925-0458-4c58-9689-c2c8b31b9470",
								"type": "text"
							}
						],
						"body": {
							"mode": "raw",
							"raw": "{\r\n    \"representative_info_id\":\"417c0e22-0a1a-4c80-8052-788ba107034a\",\r\n    \"model\":\"my_model\",\r\n    \"org_unit\":\"my_org_unit\",\r\n    \"org_name\":\"my_org_name\",\r\n    \"org_phone\":\"my_org_phone\",\r\n    \"org_hotline\":\"my_org_hotline\",\r\n    \"org_address\":\"my_org_address\",\r\n    \"org_email\":\"my_org_email\",\r\n    \"org_code\":\"my_org_code\",\r\n    \"zip_code\":\"my_zip_code\"\r\n}",
							"options": {
								"raw": {
									"language": "json"
								}
							}
						},
						"url": {
							"raw": "{{base_entity_term}}/entity-term-info/update/417c0e22-0a1a-4c80-8052-788ba107034a",
							"host": [
								"{{base_entity_term}}"
							],
							"path": [
								"entity-term-info",
								"update",
								"417c0e22-0a1a-4c80-8052-788ba107034a"
							]
						}
					},
					"response": []
				},
				{
					"name": "Get one",
					"protocolProfileBehavior": {
						"disableBodyPruning": true
					},
					"request": {
						"method": "GET",
						"header": [
							{
								"key": "x-user-id",
								"value": "1e752925-0458-4c58-9689-c2c8b31b9470",
								"type": "text"
							}
						],
						"body": {
							"mode": "raw",
							"raw": "",
							"options": {
								"raw": {
									"language": "json"
								}
							}
						},
						"url": {
							"raw": "{{base_entity_term}}/entity-term-info/get-one/417c0e22-0a1a-4c80-8052-788ba107034a",
							"host": [
								"{{base_entity_term}}"
							],
							"path": [
								"entity-term-info",
								"get-one",
								"417c0e22-0a1a-4c80-8052-788ba107034a"
							]
						}
					},
					"response": []
				},
				{
					"name": "Get All",
					"protocolProfileBehavior": {
						"disableBodyPruning": true
					},
					"request": {
						"method": "GET",
						"header": [
							{
								"key": "x-user-id",
								"value": "1e752925-0458-4c58-9689-c2c8b31b9470",
								"type": "text"
							}
						],
						"body": {
							"mode": "raw",
							"raw": "",
							"options": {
								"raw": {
									"language": "json"
								}
							}
						},
						"url": {
							"raw": "{{base_entity_term}}/entity-term-info/get-list?page=1&page_size=10&sort=created_at",
							"host": [
								"{{base_entity_term}}"
							],
							"path": [
								"entity-term-info",
								"get-list"
							],
							"query": [
								{
									"key": "page",
									"value": "1"
								},
								{
									"key": "page_size",
									"value": "10"
								},
								{
									"key": "sort",
									"value": "created_at"
								},
								{
									"key": "representative_info_id",
									"value": "-",
									"disabled": true
								},
								{
									"key": "model",
									"value": "",
									"disabled": true
								},
								{
									"key": "org_unit",
									"value": null,
									"disabled": true
								},
								{
									"key": "org_name",
									"value": null,
									"disabled": true
								},
								{
									"key": "org_phone",
									"value": null,
									"disabled": true
								},
								{
									"key": "org_hotline",
									"value": null,
									"disabled": true
								},
								{
									"key": "org_address",
									"value": null,
									"disabled": true
								},
								{
									"key": "org_email",
									"value": null,
									"disabled": true
								},
								{
									"key": "org_code",
									"value": null,
									"disabled": true
								},
								{
									"key": "zip_code",
									"value": null,
									"disabled": true
								}
							]
						}
					},
					"response": []
				},
				{
					"name": "Delete",
					"request": {
						"method": "DELETE",
						"header": [
							{
								"key": "x-user-id",
								"value": "1e752925-0458-4c58-9689-c2c8b31b9470",
								"type": "text"
							}
						],
						"body": {
							"mode": "raw",
							"raw": "",
							"options": {
								"raw": {
									"language": "json"
								}
							}
						},
						"url": {
							"raw": "{{base_entity_term}}/entity-term-info/delete/4f2e4ece-f880-4659-a484-f253fe3d6458",
							"host": [
								"{{base_entity_term}}"
							],
							"path": [
								"entity-term-info",
								"delete",
								"4f2e4ece-f880-4659-a484-f253fe3d6458"
							]
						}
					},
					"response": []
				}
			]
		}
	]
}